{
  "cordova-plugin-advanced-http": {
    "source": {
      "type": "registry",
      "id": "cordova-plugin-advanced-http"
    },
    "is_top_level": true,
    "variables": {}
  },
  "cordova-sqlite-storage": {
    "source": {
      "type": "registry",
      "id": "cordova-sqlite-storage"
    },
    "is_top_level": true,
    "variables": {}
  },
  "cordova-plugin-googleplus": {
    "source": {
      "type": "registry",
      "id": "cordova-plugin-googleplus"
    },
    "is_top_level": true,
    "variables": {
      "REVERSED_CLIENT_ID": "com.googleusercontent.apps.191929119761-h1nrdqq9apcj3ri0ffivelohee5jnfvj",
      "WEB_APPLICATION_CLIENT_ID": "191929119761-0e7547rogrf1pjhmkssb583570nl3cf1.apps.googleusercontent.com"
    }
  },
  "cordova-plugin-network-information": {
    "source": {
      "type": "registry",
      "id": "cordova-plugin-network-information"
    },
    "is_top_level": true,
    "variables": {}
  },
  "cordova-plugin-dialogs": {
    "source": {
      "type": "registry",
      "id": "cordova-plugin-dialogs"
    },
    "is_top_level": true,
    "variables": {}
  },
  "cordova-plugin-device": {
    "source": {
      "type": "registry",
      "id": "cordova-plugin-device"
    },
    "is_top_level": true,
    "variables": {}
  },
  "cordova-plugin-file": {
    "source": {
      "type": "registry",
      "id": "cordova-plugin-file@>=2.0.0"
    },
    "is_top_level": false,
    "variables": {}
  },
  "cordova-plugin-whitelist": {
    "source": {
      "type": "registry",
      "id": "cordova-plugin-whitelist@1"
    },
    "is_top_level": true,
    "variables": {}
  },
  "cordova-plugin-splashscreen": {
    "source": {
      "type": "registry",
      "id": "cordova-plugin-splashscreen@5.0.3"
    },
    "is_top_level": true,
    "variables": {}
  }
}